%YAML 1.1
%TAG !u! tag:unity3d.com,2011:
--- !u!74 &7400000
AnimationClip:
  m_ObjectHideFlags: 0
  m_CorrespondingSourceObject: {fileID: 0}
  m_PrefabInstance: {fileID: 0}
  m_PrefabAsset: {fileID: 0}
  m_Name: mov_andar
  serializedVersion: 6
  m_Legacy: 0
  m_Compressed: 0
  m_UseHighQualityCurve: 1
  m_RotationCurves: []
  m_CompressedRotationCurves: []
  m_EulerCurves: []
  m_PositionCurves: []
  m_ScaleCurves: []
  m_FloatCurves: []
  m_PPtrCurves:
  - curve:
    - time: 0
      value: {fileID: -9184952582076397725, guid: 5d5f741d9390d2349898ae7c0c8f207a,
        type: 3}
    - time: 0.15
      value: {fileID: -8426096522859284273, guid: 5d5f741d9390d2349898ae7c0c8f207a,
        type: 3}
    - time: 0.3
      value: {fileID: -5404251022018343097, guid: 5d5f741d9390d2349898ae7c0c8f207a,
        type: 3}
    - time: 0.45
      value: {fileID: 4172559162386168553, guid: 5d5f741d9390d2349898ae7c0c8f207a,
        type: 3}
    - time: 0.6
      value: {fileID: -5530246264150881729, guid: 5d5f741d9390d2349898ae7c0c8f207a,
        type: 3}
    - time: 0.75
      value: {fileID: -9080178406485202730, guid: 5d5f741d9390d2349898ae7c0c8f207a,
        type: 3}
    - time: 0.9
      value: {fileID: 2437970359732768972, guid: 5d5f741d9390d2349898ae7c0c8f207a,
        type: 3}
    - time: 1.05
      value: {fileID: -2815191209090610246, guid: 5d5f741d9390d2349898ae7c0c8f207a,
        type: 3}
    - time: 1.2
      value: {fileID: 4982071889269989881, guid: 5d5f741d9390d2349898ae7c0c8f207a,
        type: 3}
    - time: 1.35
      value: {fileID: 7233556715118279141, guid: 5d5f741d9390d2349898ae7c0c8f207a,
        type: 3}
    - time: 1.5
      value: {fileID: -703175178201464126, guid: 5d5f741d9390d2349898ae7c0c8f207a,
        type: 3}
    attribute: m_Sprite
    path: 
    classID: 212
    script: {fileID: 0}
  m_SampleRate: 60
  m_WrapMode: 0
  m_Bounds:
    m_Center: {x: 0, y: 0, z: 0}
    m_Extent: {x: 0, y: 0, z: 0}
  m_ClipBindingConstant:
    genericBindings:
    - serializedVersion: 2
      path: 0
      attribute: 0
      script: {fileID: 0}
      typeID: 212
      customType: 23
      isPPtrCurve: 1
    pptrCurveMapping:
    - {fileID: -9184952582076397725, guid: 5d5f741d9390d2349898ae7c0c8f207a, type: 3}
    - {fileID: -8426096522859284273, guid: 5d5f741d9390d2349898ae7c0c8f207a, type: 3}
    - {fileID: -5404251022018343097, guid: 5d5f741d9390d2349898ae7c0c8f207a, type: 3}
    - {fileID: 4172559162386168553, guid: 5d5f741d9390d2349898ae7c0c8f207a, type: 3}
    - {fileID: -5530246264150881729, guid: 5d5f741d9390d2349898ae7c0c8f207a, type: 3}
    - {fileID: -9080178406485202730, guid: 5d5f741d9390d2349898ae7c0c8f207a, type: 3}
    - {fileID: 2437970359732768972, guid: 5d5f741d9390d2349898ae7c0c8f207a, type: 3}
    - {fileID: -2815191209090610246, guid: 5d5f741d9390d2349898ae7c0c8f207a, type: 3}
    - {fileID: 4982071889269989881, guid: 5d5f741d9390d2349898ae7c0c8f207a, type: 3}
    - {fileID: 7233556715118279141, guid: 5d5f741d9390d2349898ae7c0c8f207a, type: 3}
    - {fileID: -703175178201464126, guid: 5d5f741d9390d2349898ae7c0c8f207a, type: 3}
  m_AnimationClipSettings:
    serializedVersion: 2
    m_AdditiveReferencePoseClip: {fileID: 0}
    m_AdditiveReferencePoseTime: 0
    m_StartTime: 0
    m_StopTime: 1.5166667
    m_OrientationOffsetY: 0
    m_Level: 0
    m_CycleOffset: 0
    m_HasAdditiveReferencePose: 0
    m_LoopTime: 1
    m_LoopBlend: 0
    m_LoopBlendOrientation: 0
    m_LoopBlendPositionY: 0
    m_LoopBlendPositionXZ: 0
    m_KeepOriginalOrientation: 0
    m_KeepOriginalPositionY: 1
    m_KeepOriginalPositionXZ: 0
    m_HeightFromFeet: 0
    m_Mirror: 0
  m_EditorCurves: []
  m_EulerEditorCurves: []
  m_HasGenericRootTransform: 0
  m_HasMotionFloatCurves: 0
  m_Events: []
