%YAML 1.1
%TAG !u! tag:unity3d.com,2011:
--- !u!74 &7400000
AnimationClip:
  m_ObjectHideFlags: 0
  m_CorrespondingSourceObject: {fileID: 0}
  m_PrefabInstance: {fileID: 0}
  m_PrefabAsset: {fileID: 0}
  m_Name: salto_corriendo
  serializedVersion: 6
  m_Legacy: 0
  m_Compressed: 0
  m_UseHighQualityCurve: 1
  m_RotationCurves: []
  m_CompressedRotationCurves: []
  m_EulerCurves: []
  m_PositionCurves: []
  m_ScaleCurves: []
  m_FloatCurves: []
  m_PPtrCurves:
  - curve:
    - time: 0
      value: {fileID: 4172559162386168553, guid: 5d5f741d9390d2349898ae7c0c8f207a,
        type: 3}
    - time: 0.083333336
      value: {fileID: -9080178406485202730, guid: 5d5f741d9390d2349898ae7c0c8f207a,
        type: 3}
    - time: 0.16666667
      value: {fileID: 2437970359732768972, guid: 5d5f741d9390d2349898ae7c0c8f207a,
        type: 3}
    - time: 0.25
      value: {fileID: 5208359229057059285, guid: 44b692fefd65c3647ac7398e931456d9,
        type: 3}
    - time: 0.36666667
      value: {fileID: -499632288620573222, guid: 44b692fefd65c3647ac7398e931456d9,
        type: 3}
    - time: 0.51666665
      value: {fileID: 735813413461292166, guid: 44b692fefd65c3647ac7398e931456d9,
        type: 3}
    - time: 0.73333335
      value: {fileID: 4149018010035987206, guid: 44b692fefd65c3647ac7398e931456d9,
        type: 3}
    - time: 1.1166667
      value: {fileID: -8528864455918728838, guid: 44b692fefd65c3647ac7398e931456d9,
        type: 3}
    - time: 1.3166667
      value: {fileID: 3440353371633101025, guid: 44b692fefd65c3647ac7398e931456d9,
        type: 3}
    - time: 1.4833333
      value: {fileID: 4982071889269989881, guid: 5d5f741d9390d2349898ae7c0c8f207a,
        type: 3}
    attribute: m_Sprite
    path: 
    classID: 212
    script: {fileID: 0}
  m_SampleRate: 60
  m_WrapMode: 0
  m_Bounds:
    m_Center: {x: 0, y: 0, z: 0}
    m_Extent: {x: 0, y: 0, z: 0}
  m_ClipBindingConstant:
    genericBindings:
    - serializedVersion: 2
      path: 0
      attribute: 0
      script: {fileID: 0}
      typeID: 212
      customType: 23
      isPPtrCurve: 1
    pptrCurveMapping:
    - {fileID: 4172559162386168553, guid: 5d5f741d9390d2349898ae7c0c8f207a, type: 3}
    - {fileID: -9080178406485202730, guid: 5d5f741d9390d2349898ae7c0c8f207a, type: 3}
    - {fileID: 2437970359732768972, guid: 5d5f741d9390d2349898ae7c0c8f207a, type: 3}
    - {fileID: 5208359229057059285, guid: 44b692fefd65c3647ac7398e931456d9, type: 3}
    - {fileID: -499632288620573222, guid: 44b692fefd65c3647ac7398e931456d9, type: 3}
    - {fileID: 735813413461292166, guid: 44b692fefd65c3647ac7398e931456d9, type: 3}
    - {fileID: 4149018010035987206, guid: 44b692fefd65c3647ac7398e931456d9, type: 3}
    - {fileID: -8528864455918728838, guid: 44b692fefd65c3647ac7398e931456d9, type: 3}
    - {fileID: 3440353371633101025, guid: 44b692fefd65c3647ac7398e931456d9, type: 3}
    - {fileID: 4982071889269989881, guid: 5d5f741d9390d2349898ae7c0c8f207a, type: 3}
  m_AnimationClipSettings:
    serializedVersion: 2
    m_AdditiveReferencePoseClip: {fileID: 0}
    m_AdditiveReferencePoseTime: 0
    m_StartTime: 0
    m_StopTime: 1.5
    m_OrientationOffsetY: 0
    m_Level: 0
    m_CycleOffset: 0
    m_HasAdditiveReferencePose: 0
    m_LoopTime: 1
    m_LoopBlend: 0
    m_LoopBlendOrientation: 0
    m_LoopBlendPositionY: 0
    m_LoopBlendPositionXZ: 0
    m_KeepOriginalOrientation: 0
    m_KeepOriginalPositionY: 1
    m_KeepOriginalPositionXZ: 0
    m_HeightFromFeet: 0
    m_Mirror: 0
  m_EditorCurves: []
  m_EulerEditorCurves: []
  m_HasGenericRootTransform: 0
  m_HasMotionFloatCurves: 0
  m_Events:
  - time: 0.25
    functionName: ComenzarSalto
    data: 
    objectReferenceParameter: {fileID: 0}
    floatParameter: 0
    intParameter: 0
    messageOptions: 0
