%YAML 1.1
%TAG !u! tag:unity3d.com,2011:
--- !u!1045 &1
EditorBuildSettings:
  m_ObjectHideFlags: 0
  serializedVersion: 2
  m_Scenes:
  - enabled: 1
    path: Assets/Escenas/0_Inicio.unity
    guid: 013518f1ba81d52448e6cd8f8475348c
  - enabled: 1
    path: Assets/Escenas/1_Menu.unity
    guid: a42e0a956c627504f9dce56926c44bc2
  - enabled: 1
    path: Assets/Escenas/2_Juego.unity
    guid: 386618e7a2f1c034791636eb295108bf
  m_configObjects: {}
