%YAML 1.1
%TAG !u! tag:unity3d.com,2011:
--- !u!1045 &1
EditorBuildSettings:
  m_ObjectHideFlags: 0
  serializedVersion: 2
  m_Scenes:
  - enabled: 1
    path: Assets/Escenas/0_inicio.unity
    guid: 2102adeb9a0b26540bc37a47fe447e56
  - enabled: 1
    path: Assets/Escenas/1_Menu.unity
    guid: 066bca9865b26c9419209e729477d880
  - enabled: 1
    path: Assets/Escenas/2_Juego.unity
    guid: d529d443b9eee3c448b62cbd75921216
  m_configObjects: {}
